%YAML 1.1
%TAG !u! tag:unity3d.com,2011:
--- !u!74 &7400000
AnimationClip:
  m_ObjectHideFlags: 0
  m_CorrespondingSourceObject: {fileID: 0}
  m_PrefabInstance: {fileID: 0}
  m_PrefabAsset: {fileID: 0}
  m_Name: WaterSplash
  serializedVersion: 6
  m_Legacy: 0
  m_Compressed: 0
  m_UseHighQualityCurve: 1
  m_RotationCurves: []
  m_CompressedRotationCurves: []
  m_EulerCurves: []
  m_PositionCurves: []
  m_ScaleCurves: []
  m_FloatCurves: []
  m_PPtrCurves:
  - curve:
    - time: 0
      value: {fileID: 21300000, guid: 2f0c37f19aca76e44b7bd305a1c37a85, type: 3}
    - time: 0.083333336
      value: {fileID: 21300000, guid: 2f0c37f19aca76e44b7bd305a1c37a85, type: 3}
    - time: 0.16666667
      value: {fileID: 21300000, guid: 4ac3684b854480548b1be3389a6b09fd, type: 3}
    - time: 0.25
      value: {fileID: 21300000, guid: 4ac3684b854480548b1be3389a6b09fd, type: 3}
    - time: 0.33333334
      value: {fileID: 21300000, guid: 34cac655d2f709d45947225c0545d44c, type: 3}
    - time: 0.41666666
      value: {fileID: 21300000, guid: 34cac655d2f709d45947225c0545d44c, type: 3}
    - time: 0.5
      value: {fileID: 21300000, guid: d620225ebb8e7ba44819c16b64e9f5e5, type: 3}
    - time: 0.5833333
      value: {fileID: 21300000, guid: d620225ebb8e7ba44819c16b64e9f5e5, type: 3}
    - time: 0.6666667
      value: {fileID: 21300000, guid: d88e45a0dc7c6f44891174b3af346b4b, type: 3}
    - time: 0.75
      value: {fileID: 21300000, guid: d88e45a0dc7c6f44891174b3af346b4b, type: 3}
    - time: 0.8333333
      value: {fileID: 21300000, guid: c4e906481dce19e45b38045f3d565fc2, type: 3}
    - time: 0.9166667
      value: {fileID: 21300000, guid: c4e906481dce19e45b38045f3d565fc2, type: 3}
    - time: 1
      value: {fileID: 21300000, guid: ac383c4b02ceb3549b0f0cab0038db91, type: 3}
    - time: 1.0833334
      value: {fileID: 21300000, guid: ac383c4b02ceb3549b0f0cab0038db91, type: 3}
    attribute: m_Sprite
    path: 
    classID: 212
    script: {fileID: 0}
  m_SampleRate: 12
  m_WrapMode: 0
  m_Bounds:
    m_Center: {x: 0, y: 0, z: 0}
    m_Extent: {x: 0, y: 0, z: 0}
  m_ClipBindingConstant:
    genericBindings:
    - serializedVersion: 2
      path: 0
      attribute: 0
      script: {fileID: 0}
      typeID: 212
      customType: 23
      isPPtrCurve: 1
    pptrCurveMapping:
    - {fileID: 21300000, guid: 2f0c37f19aca76e44b7bd305a1c37a85, type: 3}
    - {fileID: 21300000, guid: 2f0c37f19aca76e44b7bd305a1c37a85, type: 3}
    - {fileID: 21300000, guid: 4ac3684b854480548b1be3389a6b09fd, type: 3}
    - {fileID: 21300000, guid: 4ac3684b854480548b1be3389a6b09fd, type: 3}
    - {fileID: 21300000, guid: 34cac655d2f709d45947225c0545d44c, type: 3}
    - {fileID: 21300000, guid: 34cac655d2f709d45947225c0545d44c, type: 3}
    - {fileID: 21300000, guid: d620225ebb8e7ba44819c16b64e9f5e5, type: 3}
    - {fileID: 21300000, guid: d620225ebb8e7ba44819c16b64e9f5e5, type: 3}
    - {fileID: 21300000, guid: d88e45a0dc7c6f44891174b3af346b4b, type: 3}
    - {fileID: 21300000, guid: d88e45a0dc7c6f44891174b3af346b4b, type: 3}
    - {fileID: 21300000, guid: c4e906481dce19e45b38045f3d565fc2, type: 3}
    - {fileID: 21300000, guid: c4e906481dce19e45b38045f3d565fc2, type: 3}
    - {fileID: 21300000, guid: ac383c4b02ceb3549b0f0cab0038db91, type: 3}
    - {fileID: 21300000, guid: ac383c4b02ceb3549b0f0cab0038db91, type: 3}
  m_AnimationClipSettings:
    serializedVersion: 2
    m_AdditiveReferencePoseClip: {fileID: 0}
    m_AdditiveReferencePoseTime: 0
    m_StartTime: 0
    m_StopTime: 1.1666667
    m_OrientationOffsetY: 0
    m_Level: 0
    m_CycleOffset: 0
    m_HasAdditiveReferencePose: 0
    m_LoopTime: 1
    m_LoopBlend: 0
    m_LoopBlendOrientation: 0
    m_LoopBlendPositionY: 0
    m_LoopBlendPositionXZ: 0
    m_KeepOriginalOrientation: 0
    m_KeepOriginalPositionY: 1
    m_KeepOriginalPositionXZ: 0
    m_HeightFromFeet: 0
    m_Mirror: 0
  m_EditorCurves: []
  m_EulerEditorCurves: []
  m_HasGenericRootTransform: 0
  m_HasMotionFloatCurves: 0
  m_Events:
  - time: 1.0833334
    functionName: GameObjectDestroy
    data: 
    objectReferenceParameter: {fileID: 0}
    floatParameter: 0
    intParameter: 0
    messageOptions: 0
