%YAML 1.1
%TAG !u! tag:unity3d.com,2011:
--- !u!114 &11400000
MonoBehaviour:
  m_ObjectHideFlags: 0
  m_CorrespondingSourceObject: {fileID: 0}
  m_PrefabInstance: {fileID: 0}
  m_PrefabAsset: {fileID: 0}
  m_GameObject: {fileID: 0}
  m_Enabled: 1
  m_EditorHideFlags: 0
  m_Script: {fileID: 11500000, guid: 7ca3b536a4349f048ae4343d9ea0b746, type: 3}
  m_Name: E6_PlayerDetectedData
  m_EditorClassIdentifier: 
  longRangeActionTime: 0.7
  shortRangeActionTimeSet: 0.7
