%YAML 1.1
%TAG !u! tag:unity3d.com,2011:
--- !u!114 &11400000
MonoBehaviour:
  m_ObjectHideFlags: 0
  m_CorrespondingSourceObject: {fileID: 0}
  m_PrefabInstance: {fileID: 0}
  m_PrefabAsset: {fileID: 0}
  m_GameObject: {fileID: 0}
  m_Enabled: 1
  m_EditorHideFlags: 0
  m_Script: {fileID: 11500000, guid: c326069c1735de740a60af62658a4ee2, type: 3}
  m_Name: E2_LookForPlayerStateData
  m_EditorClassIdentifier: 
  amountOfTurns: 2
  timeBetweenTurns: 0.75
