%YAML 1.1
%TAG !u! tag:unity3d.com,2011:
--- !u!21 &2100000
Material:
  serializedVersion: 6
  m_ObjectHideFlags: 0
  m_CorrespondingSourceObject: {fileID: 0}
  m_PrefabInstance: {fileID: 0}
  m_PrefabAsset: {fileID: 0}
  m_Name: Material_Water_Top_Unlit
  m_Shader: {fileID: -6465566751694194690, guid: e996c1cdac5d8f6449a8619c351dc439,
    type: 3}
  m_ShaderKeywords: ETC1_EXTERNAL_ALPHA
  m_LightmapFlags: 4
  m_EnableInstancingVariants: 0
  m_DoubleSidedGI: 0
  m_CustomRenderQueue: 3000
  stringTagMap: {}
  disabledShaderPasses: []
  m_SavedProperties:
    serializedVersion: 3
    m_TexEnvs:
    - Texture2D_3ABD3B8C:
        m_Texture: {fileID: 8400000, guid: 995745ad2b79039449b3dda271a33b91, type: 2}
        m_Scale: {x: 1, y: 1}
        m_Offset: {x: 0, y: 0}
    - Texture2D_81D0ED11:
        m_Texture: {fileID: 0}
        m_Scale: {x: 1, y: 1}
        m_Offset: {x: 0, y: 0}
    - _MainTex:
        m_Texture: {fileID: 2800000, guid: f52fb4c3d7a8ec94d94ffa23509e53bd, type: 3}
        m_Scale: {x: 1, y: 1}
        m_Offset: {x: 0, y: 0}
    m_Floats:
    - Vector1_1098D7FE: 2.2
    - Vector1_128C7CD1: 0.71
    - Vector1_52909EDA: 10.25
    - Vector1_6A8B50F0: 0.44
    - Vector1_6EC07791: 0.58
    - Vector1_8F5EE685: 1
    - Vector1_BB49C78C: 0
    - Vector1_DC129BE: 1.27
    - Vector1_DD119790: 1
    - Vector1_DDE1D04C: 0.009
    m_Colors:
    - Color_4BDDB20F: {r: 0.22379889, g: 0.2833061, b: 0.27295703, a: 1}
    - Color_A070067B: {r: 0.10840159, g: 0.7924528, b: 0.24666728, a: 0.54509807}
    - Color_A0D31A6A: {r: 0.19357423, g: 0.5471698, b: 0.5141417, a: 1}
    - Color_DD84C9EF: {r: 0.9575472, g: 0.98006004, b: 1, a: 1}
    - Vector2_2F7B3F9F: {r: 0.39, g: 5.29, b: 0, a: 0}
    - Vector2_E537B32A: {r: 0.44, g: 2.06, b: 0, a: 0}
