%YAML 1.1
%TAG !u! tag:unity3d.com,2011:
--- !u!114 &11400000
MonoBehaviour:
  m_ObjectHideFlags: 0
  m_CorrespondingSourceObject: {fileID: 0}
  m_PrefabInstance: {fileID: 0}
  m_PrefabAsset: {fileID: 0}
  m_GameObject: {fileID: 0}
  m_Enabled: 1
  m_EditorHideFlags: 0
  m_Script: {fileID: 11500000, guid: 3dd964009ee466747b040d69e85dc55d, type: 3}
  m_Name: E1_BaseData
  m_EditorClassIdentifier: 
  maxHealth: 200
  damageHopSpeed: 1.4
  wallCheckDistance: 0.1
  ledgeCheckDistance: 0.5
  maxAgroDistance: 2
  groundCheckRadus: 0.3
  minAgroDistance: 1.5
  stunResistance: 3
  stunRecoveryTime: 2
  closeRangeActionDistance: 0.5
  whatIsPlayer:
    serializedVersion: 2
    m_Bits: 2048
  whatIsGround:
    serializedVersion: 2
    m_Bits: 256
  hitParticle: {fileID: 1365651042117538744, guid: c8895c127bdd10d4b91d97b08005d7fa,
    type: 3}
