%YAML 1.1
%TAG !u! tag:unity3d.com,2011:
--- !u!114 &11400000
MonoBehaviour:
  m_ObjectHideFlags: 0
  m_CorrespondingSourceObject: {fileID: 0}
  m_PrefabInstance: {fileID: 0}
  m_PrefabAsset: {fileID: 0}
  m_GameObject: {fileID: 0}
  m_Enabled: 1
  m_EditorHideFlags: 0
  m_Script: {fileID: 11500000, guid: 922f19e18378a8a488878ae455db1d6a, type: 3}
  m_Name: E1_deadStateData
  m_EditorClassIdentifier: 
  deathChunkParticle: {fileID: 0}
  deathBloodParticle: {fileID: 8973794552318285525, guid: 2ec75fece95b6284bbdb79b06cc95ebc,
    type: 3}
